PWD /Users/ebzsubtil/code/resume-webpage/src/latex
INPUT /opt/homebrew/Cellar/texlive/20240312_1/share/texmf-dist/web2c/texmf.cnf
INPUT /opt/homebrew/Cellar/texlive/20240312_1/share/texmf-var/web2c/pdftex/pdflatex.fmt
INPUT /Users/ebzsubtil/code/resume-webpage/src/latex/main.tex
OUTPUT main.log
INPUT ./developercv.cls
INPUT developercv.cls
INPUT /opt/homebrew/Cellar/texlive/20240312_1/share/texmf-dist/tex/latex/extsizes/extarticle.cls
INPUT /opt/homebrew/Cellar/texlive/20240312_1/share/texmf-dist/tex/latex/extsizes/extarticle.cls
INPUT /opt/homebrew/Cellar/texlive/20240312_1/share/texmf-dist/tex/latex/extsizes/size9.clo
INPUT /opt/homebrew/Cellar/texlive/20240312_1/share/texmf-dist/tex/latex/extsizes/size9.clo
INPUT /opt/homebrew/Cellar/texlive/20240312_1/share/texmf-dist/tex/latex/extsizes/size9.clo
INPUT /opt/homebrew/Cellar/texlive/20240312_1/share/texmf-dist/fonts/map/fontname/texfonts.map
INPUT /opt/homebrew/Cellar/texlive/20240312_1/share/texmf-dist/fonts/tfm/public/cm/cmr9.tfm
INPUT /opt/homebrew/Cellar/texlive/20240312_1/share/texmf-dist/tex/latex/base/exscale.sty
INPUT /opt/homebrew/Cellar/texlive/20240312_1/share/texmf-dist/tex/latex/base/exscale.sty
INPUT /opt/homebrew/Cellar/texlive/20240312_1/share/texmf-dist/tex/latex/hyperref/hyperref.sty
INPUT /opt/homebrew/Cellar/texlive/20240312_1/share/texmf-dist/tex/latex/hyperref/hyperref.sty
INPUT /opt/homebrew/Cellar/texlive/20240312_1/share/texmf-dist/tex/generic/iftex/iftex.sty
INPUT /opt/homebrew/Cellar/texlive/20240312_1/share/texmf-dist/tex/generic/iftex/iftex.sty
INPUT /opt/homebrew/Cellar/texlive/20240312_1/share/texmf-dist/tex/latex/graphics/keyval.sty
INPUT /opt/homebrew/Cellar/texlive/20240312_1/share/texmf-dist/tex/latex/graphics/keyval.sty
INPUT /opt/homebrew/Cellar/texlive/20240312_1/share/texmf-dist/tex/latex/kvsetkeys/kvsetkeys.sty
INPUT /opt/homebrew/Cellar/texlive/20240312_1/share/texmf-dist/tex/latex/kvsetkeys/kvsetkeys.sty
INPUT /opt/homebrew/Cellar/texlive/20240312_1/share/texmf-dist/tex/generic/kvdefinekeys/kvdefinekeys.sty
INPUT /opt/homebrew/Cellar/texlive/20240312_1/share/texmf-dist/tex/generic/kvdefinekeys/kvdefinekeys.sty
INPUT /opt/homebrew/Cellar/texlive/20240312_1/share/texmf-dist/tex/generic/pdfescape/pdfescape.sty
INPUT /opt/homebrew/Cellar/texlive/20240312_1/share/texmf-dist/tex/generic/pdfescape/pdfescape.sty
INPUT /opt/homebrew/Cellar/texlive/20240312_1/share/texmf-dist/tex/generic/ltxcmds/ltxcmds.sty
INPUT /opt/homebrew/Cellar/texlive/20240312_1/share/texmf-dist/tex/generic/ltxcmds/ltxcmds.sty
INPUT /opt/homebrew/Cellar/texlive/20240312_1/share/texmf-dist/tex/generic/pdftexcmds/pdftexcmds.sty
INPUT /opt/homebrew/Cellar/texlive/20240312_1/share/texmf-dist/tex/generic/pdftexcmds/pdftexcmds.sty
INPUT /opt/homebrew/Cellar/texlive/20240312_1/share/texmf-dist/tex/generic/infwarerr/infwarerr.sty
INPUT /opt/homebrew/Cellar/texlive/20240312_1/share/texmf-dist/tex/generic/infwarerr/infwarerr.sty
INPUT /opt/homebrew/Cellar/texlive/20240312_1/share/texmf-dist/tex/latex/hycolor/hycolor.sty
INPUT /opt/homebrew/Cellar/texlive/20240312_1/share/texmf-dist/tex/latex/hycolor/hycolor.sty
INPUT /opt/homebrew/Cellar/texlive/20240312_1/share/texmf-dist/tex/latex/auxhook/auxhook.sty
INPUT /opt/homebrew/Cellar/texlive/20240312_1/share/texmf-dist/tex/latex/auxhook/auxhook.sty
INPUT /opt/homebrew/Cellar/texlive/20240312_1/share/texmf-dist/tex/latex/hyperref/nameref.sty
INPUT /opt/homebrew/Cellar/texlive/20240312_1/share/texmf-dist/tex/latex/hyperref/nameref.sty
INPUT /opt/homebrew/Cellar/texlive/20240312_1/share/texmf-dist/tex/latex/refcount/refcount.sty
INPUT /opt/homebrew/Cellar/texlive/20240312_1/share/texmf-dist/tex/latex/refcount/refcount.sty
INPUT /opt/homebrew/Cellar/texlive/20240312_1/share/texmf-dist/tex/generic/gettitlestring/gettitlestring.sty
INPUT /opt/homebrew/Cellar/texlive/20240312_1/share/texmf-dist/tex/generic/gettitlestring/gettitlestring.sty
INPUT /opt/homebrew/Cellar/texlive/20240312_1/share/texmf-dist/tex/latex/kvoptions/kvoptions.sty
INPUT /opt/homebrew/Cellar/texlive/20240312_1/share/texmf-dist/tex/latex/kvoptions/kvoptions.sty
INPUT /opt/homebrew/Cellar/texlive/20240312_1/share/texmf-dist/tex/latex/etoolbox/etoolbox.sty
INPUT /opt/homebrew/Cellar/texlive/20240312_1/share/texmf-dist/tex/latex/etoolbox/etoolbox.sty
INPUT /opt/homebrew/Cellar/texlive/20240312_1/share/texmf-dist/tex/latex/hyperref/pd1enc.def
INPUT /opt/homebrew/Cellar/texlive/20240312_1/share/texmf-dist/tex/latex/hyperref/pd1enc.def
INPUT /opt/homebrew/Cellar/texlive/20240312_1/share/texmf-dist/tex/latex/hyperref/pd1enc.def
INPUT /opt/homebrew/Cellar/texlive/20240312_1/share/texmf-dist/tex/generic/intcalc/intcalc.sty
INPUT /opt/homebrew/Cellar/texlive/20240312_1/share/texmf-dist/tex/generic/intcalc/intcalc.sty
INPUT /opt/homebrew/Cellar/texlive/20240312_1/share/texmf-dist/tex/latex/hyperref/puenc.def
INPUT /opt/homebrew/Cellar/texlive/20240312_1/share/texmf-dist/tex/latex/hyperref/puenc.def
INPUT /opt/homebrew/Cellar/texlive/20240312_1/share/texmf-dist/tex/latex/hyperref/puenc.def
INPUT /opt/homebrew/Cellar/texlive/20240312_1/share/texmf-dist/tex/latex/url/url.sty
INPUT /opt/homebrew/Cellar/texlive/20240312_1/share/texmf-dist/tex/latex/url/url.sty
INPUT /opt/homebrew/Cellar/texlive/20240312_1/share/texmf-dist/tex/generic/bitset/bitset.sty
INPUT /opt/homebrew/Cellar/texlive/20240312_1/share/texmf-dist/tex/generic/bitset/bitset.sty
INPUT /opt/homebrew/Cellar/texlive/20240312_1/share/texmf-dist/tex/generic/bigintcalc/bigintcalc.sty
INPUT /opt/homebrew/Cellar/texlive/20240312_1/share/texmf-dist/tex/generic/bigintcalc/bigintcalc.sty
INPUT /opt/homebrew/Cellar/texlive/20240312_1/share/texmf-dist/tex/generic/atbegshi/atbegshi.sty
INPUT /opt/homebrew/Cellar/texlive/20240312_1/share/texmf-dist/tex/latex/base/atbegshi-ltx.sty
INPUT /opt/homebrew/Cellar/texlive/20240312_1/share/texmf-dist/tex/latex/base/atbegshi-ltx.sty
INPUT /opt/homebrew/Cellar/texlive/20240312_1/share/texmf-dist/tex/latex/hyperref/hpdftex.def
INPUT /opt/homebrew/Cellar/texlive/20240312_1/share/texmf-dist/tex/latex/hyperref/hpdftex.def
INPUT /opt/homebrew/Cellar/texlive/20240312_1/share/texmf-dist/tex/latex/hyperref/hpdftex.def
INPUT /opt/homebrew/Cellar/texlive/20240312_1/share/texmf-dist/tex/latex/atveryend/atveryend.sty
INPUT /opt/homebrew/Cellar/texlive/20240312_1/share/texmf-dist/tex/latex/base/atveryend-ltx.sty
INPUT /opt/homebrew/Cellar/texlive/20240312_1/share/texmf-dist/tex/latex/base/atveryend-ltx.sty
INPUT /opt/homebrew/Cellar/texlive/20240312_1/share/texmf-dist/tex/latex/rerunfilecheck/rerunfilecheck.sty
INPUT /opt/homebrew/Cellar/texlive/20240312_1/share/texmf-dist/tex/latex/rerunfilecheck/rerunfilecheck.sty
INPUT /opt/homebrew/Cellar/texlive/20240312_1/share/texmf-dist/tex/generic/uniquecounter/uniquecounter.sty
INPUT /opt/homebrew/Cellar/texlive/20240312_1/share/texmf-dist/tex/generic/uniquecounter/uniquecounter.sty
INPUT /opt/homebrew/Cellar/texlive/20240312_1/share/texmf-dist/tex/latex/moresize/moresize.sty
INPUT /opt/homebrew/Cellar/texlive/20240312_1/share/texmf-dist/tex/latex/moresize/moresize.sty
INPUT /opt/homebrew/Cellar/texlive/20240312_1/share/texmf-dist/tex/latex/geometry/geometry.sty
INPUT /opt/homebrew/Cellar/texlive/20240312_1/share/texmf-dist/tex/latex/geometry/geometry.sty
INPUT /opt/homebrew/Cellar/texlive/20240312_1/share/texmf-dist/tex/generic/iftex/ifvtex.sty
INPUT /opt/homebrew/Cellar/texlive/20240312_1/share/texmf-dist/tex/generic/iftex/ifvtex.sty
INPUT /opt/homebrew/Cellar/texlive/20240312_1/share/texmf-dist/tex/latex/base/inputenc.sty
INPUT /opt/homebrew/Cellar/texlive/20240312_1/share/texmf-dist/tex/latex/base/inputenc.sty
INPUT /opt/homebrew/Cellar/texlive/20240312_1/share/texmf-dist/tex/latex/base/fontenc.sty
INPUT /opt/homebrew/Cellar/texlive/20240312_1/share/texmf-dist/tex/latex/base/fontenc.sty
INPUT /opt/homebrew/Cellar/texlive/20240312_1/share/texmf-dist/fonts/tfm/jknappen/ec/ecrm0900.tfm
INPUT /opt/homebrew/Cellar/texlive/20240312_1/share/texmf-dist/tex/latex/raleway/raleway.sty
INPUT /opt/homebrew/Cellar/texlive/20240312_1/share/texmf-dist/tex/latex/raleway/raleway.sty
INPUT /opt/homebrew/Cellar/texlive/20240312_1/share/texmf-dist/tex/generic/iftex/ifxetex.sty
INPUT /opt/homebrew/Cellar/texlive/20240312_1/share/texmf-dist/tex/generic/iftex/ifxetex.sty
INPUT /opt/homebrew/Cellar/texlive/20240312_1/share/texmf-dist/tex/generic/iftex/ifluatex.sty
INPUT /opt/homebrew/Cellar/texlive/20240312_1/share/texmf-dist/tex/generic/iftex/ifluatex.sty
INPUT /opt/homebrew/Cellar/texlive/20240312_1/share/texmf-dist/tex/latex/xkeyval/xkeyval.sty
INPUT /opt/homebrew/Cellar/texlive/20240312_1/share/texmf-dist/tex/latex/xkeyval/xkeyval.sty
INPUT /opt/homebrew/Cellar/texlive/20240312_1/share/texmf-dist/tex/generic/xkeyval/xkeyval.tex
INPUT /opt/homebrew/Cellar/texlive/20240312_1/share/texmf-dist/tex/generic/xkeyval/xkvutils.tex
INPUT /opt/homebrew/Cellar/texlive/20240312_1/share/texmf-dist/tex/latex/base/fontenc.sty
INPUT /opt/homebrew/Cellar/texlive/20240312_1/share/texmf-dist/tex/latex/ly1/ly1enc.def
INPUT /opt/homebrew/Cellar/texlive/20240312_1/share/texmf-dist/tex/latex/ly1/ly1enc.def
INPUT /opt/homebrew/Cellar/texlive/20240312_1/share/texmf-dist/tex/latex/ly1/ly1enc.def
INPUT /opt/homebrew/Cellar/texlive/20240312_1/share/texmf-dist/tex/latex/base/ly1enc.dfu
INPUT /opt/homebrew/Cellar/texlive/20240312_1/share/texmf-dist/tex/latex/base/ly1enc.dfu
INPUT /opt/homebrew/Cellar/texlive/20240312_1/share/texmf-dist/tex/latex/base/ly1enc.dfu
INPUT /opt/homebrew/Cellar/texlive/20240312_1/share/texmf-dist/tex/latex/mweights/mweights.sty
INPUT /opt/homebrew/Cellar/texlive/20240312_1/share/texmf-dist/tex/latex/fontawesome/fontawesome.sty
INPUT /opt/homebrew/Cellar/texlive/20240312_1/share/texmf-dist/tex/latex/fontawesome/fontawesome.sty
INPUT /opt/homebrew/Cellar/texlive/20240312_1/share/texmf-dist/tex/latex/fontawesome/fontawesomesymbols-generic.tex
INPUT /opt/homebrew/Cellar/texlive/20240312_1/share/texmf-dist/tex/latex/fontawesome/fontawesomesymbols-generic.tex
INPUT /opt/homebrew/Cellar/texlive/20240312_1/share/texmf-dist/tex/latex/fontawesome/fontawesomesymbols-generic.tex
INPUT /opt/homebrew/Cellar/texlive/20240312_1/share/texmf-dist/tex/latex/fontawesome/fontawesomesymbols-pdftex.tex
INPUT /opt/homebrew/Cellar/texlive/20240312_1/share/texmf-dist/tex/latex/fontawesome/fontawesomesymbols-pdftex.tex
INPUT /opt/homebrew/Cellar/texlive/20240312_1/share/texmf-dist/tex/latex/fontawesome/fontawesomesymbols-pdftex.tex
INPUT /opt/homebrew/Cellar/texlive/20240312_1/share/texmf-dist/tex/latex/pgf/frontendlayer/tikz.sty
INPUT /opt/homebrew/Cellar/texlive/20240312_1/share/texmf-dist/tex/latex/pgf/frontendlayer/tikz.sty
INPUT /opt/homebrew/Cellar/texlive/20240312_1/share/texmf-dist/tex/latex/pgf/basiclayer/pgf.sty
INPUT /opt/homebrew/Cellar/texlive/20240312_1/share/texmf-dist/tex/latex/pgf/basiclayer/pgf.sty
INPUT /opt/homebrew/Cellar/texlive/20240312_1/share/texmf-dist/tex/latex/pgf/utilities/pgfrcs.sty
INPUT /opt/homebrew/Cellar/texlive/20240312_1/share/texmf-dist/tex/latex/pgf/utilities/pgfrcs.sty
INPUT /opt/homebrew/Cellar/texlive/20240312_1/share/texmf-dist/tex/generic/pgf/utilities/pgfutil-common.tex
INPUT /opt/homebrew/Cellar/texlive/20240312_1/share/texmf-dist/tex/generic/pgf/utilities/pgfutil-latex.def
INPUT /opt/homebrew/Cellar/texlive/20240312_1/share/texmf-dist/tex/generic/pgf/utilities/pgfrcs.code.tex
INPUT /opt/homebrew/Cellar/texlive/20240312_1/share/texmf-dist/tex/generic/pgf/utilities/pgfrcs.code.tex
INPUT /opt/homebrew/Cellar/texlive/20240312_1/share/texmf-dist/tex/generic/pgf/utilities/pgfrcs.code.tex
INPUT /opt/homebrew/Cellar/texlive/20240312_1/share/texmf-dist/tex/generic/pgf/pgf.revision.tex
INPUT /opt/homebrew/Cellar/texlive/20240312_1/share/texmf-dist/tex/generic/pgf/pgf.revision.tex
INPUT /opt/homebrew/Cellar/texlive/20240312_1/share/texmf-dist/tex/latex/pgf/basiclayer/pgfcore.sty
INPUT /opt/homebrew/Cellar/texlive/20240312_1/share/texmf-dist/tex/latex/pgf/basiclayer/pgfcore.sty
INPUT /opt/homebrew/Cellar/texlive/20240312_1/share/texmf-dist/tex/latex/graphics/graphicx.sty
INPUT /opt/homebrew/Cellar/texlive/20240312_1/share/texmf-dist/tex/latex/graphics/graphicx.sty
INPUT /opt/homebrew/Cellar/texlive/20240312_1/share/texmf-dist/tex/latex/graphics/graphics.sty
INPUT /opt/homebrew/Cellar/texlive/20240312_1/share/texmf-dist/tex/latex/graphics/graphics.sty
INPUT /opt/homebrew/Cellar/texlive/20240312_1/share/texmf-dist/tex/latex/graphics/trig.sty
INPUT /opt/homebrew/Cellar/texlive/20240312_1/share/texmf-dist/tex/latex/graphics/trig.sty
INPUT /opt/homebrew/Cellar/texlive/20240312_1/share/texmf-dist/tex/latex/graphics-cfg/graphics.cfg
INPUT /opt/homebrew/Cellar/texlive/20240312_1/share/texmf-dist/tex/latex/graphics-cfg/graphics.cfg
INPUT /opt/homebrew/Cellar/texlive/20240312_1/share/texmf-dist/tex/latex/graphics-cfg/graphics.cfg
INPUT /opt/homebrew/Cellar/texlive/20240312_1/share/texmf-dist/tex/latex/graphics-def/pdftex.def
INPUT /opt/homebrew/Cellar/texlive/20240312_1/share/texmf-dist/tex/latex/graphics-def/pdftex.def
INPUT /opt/homebrew/Cellar/texlive/20240312_1/share/texmf-dist/tex/latex/graphics-def/pdftex.def
INPUT /opt/homebrew/Cellar/texlive/20240312_1/share/texmf-dist/tex/latex/pgf/systemlayer/pgfsys.sty
INPUT /opt/homebrew/Cellar/texlive/20240312_1/share/texmf-dist/tex/latex/pgf/systemlayer/pgfsys.sty
INPUT /opt/homebrew/Cellar/texlive/20240312_1/share/texmf-dist/tex/generic/pgf/systemlayer/pgfsys.code.tex
INPUT /opt/homebrew/Cellar/texlive/20240312_1/share/texmf-dist/tex/generic/pgf/systemlayer/pgfsys.code.tex
INPUT /opt/homebrew/Cellar/texlive/20240312_1/share/texmf-dist/tex/generic/pgf/systemlayer/pgfsys.code.tex
INPUT /opt/homebrew/Cellar/texlive/20240312_1/share/texmf-dist/tex/generic/pgf/utilities/pgfkeys.code.tex
INPUT /opt/homebrew/Cellar/texlive/20240312_1/share/texmf-dist/tex/generic/pgf/utilities/pgfkeyslibraryfiltered.code.tex
INPUT /opt/homebrew/Cellar/texlive/20240312_1/share/texmf-dist/tex/generic/pgf/systemlayer/pgf.cfg
INPUT /opt/homebrew/Cellar/texlive/20240312_1/share/texmf-dist/tex/generic/pgf/systemlayer/pgfsys-pdftex.def
INPUT /opt/homebrew/Cellar/texlive/20240312_1/share/texmf-dist/tex/generic/pgf/systemlayer/pgfsys-pdftex.def
INPUT /opt/homebrew/Cellar/texlive/20240312_1/share/texmf-dist/tex/generic/pgf/systemlayer/pgfsys-common-pdf.def
INPUT /opt/homebrew/Cellar/texlive/20240312_1/share/texmf-dist/tex/generic/pgf/systemlayer/pgfsyssoftpath.code.tex
INPUT /opt/homebrew/Cellar/texlive/20240312_1/share/texmf-dist/tex/generic/pgf/systemlayer/pgfsyssoftpath.code.tex
INPUT /opt/homebrew/Cellar/texlive/20240312_1/share/texmf-dist/tex/generic/pgf/systemlayer/pgfsyssoftpath.code.tex
INPUT /opt/homebrew/Cellar/texlive/20240312_1/share/texmf-dist/tex/generic/pgf/systemlayer/pgfsysprotocol.code.tex
INPUT /opt/homebrew/Cellar/texlive/20240312_1/share/texmf-dist/tex/generic/pgf/systemlayer/pgfsysprotocol.code.tex
INPUT /opt/homebrew/Cellar/texlive/20240312_1/share/texmf-dist/tex/generic/pgf/systemlayer/pgfsysprotocol.code.tex
INPUT /opt/homebrew/Cellar/texlive/20240312_1/share/texmf-dist/tex/latex/xcolor/xcolor.sty
INPUT /opt/homebrew/Cellar/texlive/20240312_1/share/texmf-dist/tex/latex/xcolor/xcolor.sty
INPUT /opt/homebrew/Cellar/texlive/20240312_1/share/texmf-dist/tex/latex/graphics-cfg/color.cfg
INPUT /opt/homebrew/Cellar/texlive/20240312_1/share/texmf-dist/tex/latex/graphics-cfg/color.cfg
INPUT /opt/homebrew/Cellar/texlive/20240312_1/share/texmf-dist/tex/latex/graphics-cfg/color.cfg
INPUT /opt/homebrew/Cellar/texlive/20240312_1/share/texmf-dist/tex/latex/graphics/mathcolor.ltx
INPUT /opt/homebrew/Cellar/texlive/20240312_1/share/texmf-dist/tex/latex/graphics/mathcolor.ltx
INPUT /opt/homebrew/Cellar/texlive/20240312_1/share/texmf-dist/tex/latex/graphics/mathcolor.ltx
INPUT /opt/homebrew/Cellar/texlive/20240312_1/share/texmf-dist/tex/generic/pgf/basiclayer/pgfcore.code.tex
INPUT /opt/homebrew/Cellar/texlive/20240312_1/share/texmf-dist/tex/generic/pgf/basiclayer/pgfcore.code.tex
INPUT /opt/homebrew/Cellar/texlive/20240312_1/share/texmf-dist/tex/generic/pgf/basiclayer/pgfcore.code.tex
INPUT /opt/homebrew/Cellar/texlive/20240312_1/share/texmf-dist/tex/generic/pgf/math/pgfmath.code.tex
INPUT /opt/homebrew/Cellar/texlive/20240312_1/share/texmf-dist/tex/generic/pgf/math/pgfmathutil.code.tex
INPUT /opt/homebrew/Cellar/texlive/20240312_1/share/texmf-dist/tex/generic/pgf/math/pgfmathparser.code.tex
INPUT /opt/homebrew/Cellar/texlive/20240312_1/share/texmf-dist/tex/generic/pgf/math/pgfmathfunctions.code.tex
INPUT /opt/homebrew/Cellar/texlive/20240312_1/share/texmf-dist/tex/generic/pgf/math/pgfmathfunctions.basic.code.tex
INPUT /opt/homebrew/Cellar/texlive/20240312_1/share/texmf-dist/tex/generic/pgf/math/pgfmathfunctions.trigonometric.code.tex
INPUT /opt/homebrew/Cellar/texlive/20240312_1/share/texmf-dist/tex/generic/pgf/math/pgfmathfunctions.random.code.tex
INPUT /opt/homebrew/Cellar/texlive/20240312_1/share/texmf-dist/tex/generic/pgf/math/pgfmathfunctions.comparison.code.tex
INPUT /opt/homebrew/Cellar/texlive/20240312_1/share/texmf-dist/tex/generic/pgf/math/pgfmathfunctions.base.code.tex
INPUT /opt/homebrew/Cellar/texlive/20240312_1/share/texmf-dist/tex/generic/pgf/math/pgfmathfunctions.round.code.tex
INPUT /opt/homebrew/Cellar/texlive/20240312_1/share/texmf-dist/tex/generic/pgf/math/pgfmathfunctions.misc.code.tex
INPUT /opt/homebrew/Cellar/texlive/20240312_1/share/texmf-dist/tex/generic/pgf/math/pgfmathfunctions.integerarithmetics.code.tex
INPUT /opt/homebrew/Cellar/texlive/20240312_1/share/texmf-dist/tex/generic/pgf/math/pgfmathcalc.code.tex
INPUT /opt/homebrew/Cellar/texlive/20240312_1/share/texmf-dist/tex/generic/pgf/math/pgfmathfloat.code.tex
INPUT /opt/homebrew/Cellar/texlive/20240312_1/share/texmf-dist/tex/generic/pgf/math/pgfint.code.tex
INPUT /opt/homebrew/Cellar/texlive/20240312_1/share/texmf-dist/tex/generic/pgf/basiclayer/pgfcorepoints.code.tex
INPUT /opt/homebrew/Cellar/texlive/20240312_1/share/texmf-dist/tex/generic/pgf/basiclayer/pgfcorepathconstruct.code.tex
INPUT /opt/homebrew/Cellar/texlive/20240312_1/share/texmf-dist/tex/generic/pgf/basiclayer/pgfcorepathusage.code.tex
INPUT /opt/homebrew/Cellar/texlive/20240312_1/share/texmf-dist/tex/generic/pgf/basiclayer/pgfcorescopes.code.tex
INPUT /opt/homebrew/Cellar/texlive/20240312_1/share/texmf-dist/tex/generic/pgf/basiclayer/pgfcoregraphicstate.code.tex
INPUT /opt/homebrew/Cellar/texlive/20240312_1/share/texmf-dist/tex/generic/pgf/basiclayer/pgfcoretransformations.code.tex
INPUT /opt/homebrew/Cellar/texlive/20240312_1/share/texmf-dist/tex/generic/pgf/basiclayer/pgfcorequick.code.tex
INPUT /opt/homebrew/Cellar/texlive/20240312_1/share/texmf-dist/tex/generic/pgf/basiclayer/pgfcoreobjects.code.tex
INPUT /opt/homebrew/Cellar/texlive/20240312_1/share/texmf-dist/tex/generic/pgf/basiclayer/pgfcorepathprocessing.code.tex
INPUT /opt/homebrew/Cellar/texlive/20240312_1/share/texmf-dist/tex/generic/pgf/basiclayer/pgfcorearrows.code.tex
INPUT /opt/homebrew/Cellar/texlive/20240312_1/share/texmf-dist/tex/generic/pgf/basiclayer/pgfcoreshade.code.tex
INPUT /opt/homebrew/Cellar/texlive/20240312_1/share/texmf-dist/tex/generic/pgf/basiclayer/pgfcoreimage.code.tex
INPUT /opt/homebrew/Cellar/texlive/20240312_1/share/texmf-dist/tex/generic/pgf/basiclayer/pgfcoreexternal.code.tex
INPUT /opt/homebrew/Cellar/texlive/20240312_1/share/texmf-dist/tex/generic/pgf/basiclayer/pgfcorelayers.code.tex
INPUT /opt/homebrew/Cellar/texlive/20240312_1/share/texmf-dist/tex/generic/pgf/basiclayer/pgfcoretransparency.code.tex
INPUT /opt/homebrew/Cellar/texlive/20240312_1/share/texmf-dist/tex/generic/pgf/basiclayer/pgfcorepatterns.code.tex
INPUT /opt/homebrew/Cellar/texlive/20240312_1/share/texmf-dist/tex/generic/pgf/basiclayer/pgfcorerdf.code.tex
INPUT /opt/homebrew/Cellar/texlive/20240312_1/share/texmf-dist/tex/generic/pgf/modules/pgfmoduleshapes.code.tex
INPUT /opt/homebrew/Cellar/texlive/20240312_1/share/texmf-dist/tex/generic/pgf/modules/pgfmoduleplot.code.tex
INPUT /opt/homebrew/Cellar/texlive/20240312_1/share/texmf-dist/tex/latex/pgf/compatibility/pgfcomp-version-0-65.sty
INPUT /opt/homebrew/Cellar/texlive/20240312_1/share/texmf-dist/tex/latex/pgf/compatibility/pgfcomp-version-0-65.sty
INPUT /opt/homebrew/Cellar/texlive/20240312_1/share/texmf-dist/tex/latex/pgf/compatibility/pgfcomp-version-1-18.sty
INPUT /opt/homebrew/Cellar/texlive/20240312_1/share/texmf-dist/tex/latex/pgf/compatibility/pgfcomp-version-1-18.sty
INPUT /opt/homebrew/Cellar/texlive/20240312_1/share/texmf-dist/tex/latex/pgf/utilities/pgffor.sty
INPUT /opt/homebrew/Cellar/texlive/20240312_1/share/texmf-dist/tex/latex/pgf/utilities/pgffor.sty
INPUT /opt/homebrew/Cellar/texlive/20240312_1/share/texmf-dist/tex/latex/pgf/utilities/pgfkeys.sty
INPUT /opt/homebrew/Cellar/texlive/20240312_1/share/texmf-dist/tex/latex/pgf/utilities/pgfkeys.sty
INPUT /opt/homebrew/Cellar/texlive/20240312_1/share/texmf-dist/tex/generic/pgf/utilities/pgfkeys.code.tex
INPUT /opt/homebrew/Cellar/texlive/20240312_1/share/texmf-dist/tex/generic/pgf/utilities/pgfkeys.code.tex
INPUT /opt/homebrew/Cellar/texlive/20240312_1/share/texmf-dist/tex/generic/pgf/utilities/pgfkeys.code.tex
INPUT /opt/homebrew/Cellar/texlive/20240312_1/share/texmf-dist/tex/latex/pgf/math/pgfmath.sty
INPUT /opt/homebrew/Cellar/texlive/20240312_1/share/texmf-dist/tex/latex/pgf/math/pgfmath.sty
INPUT /opt/homebrew/Cellar/texlive/20240312_1/share/texmf-dist/tex/generic/pgf/math/pgfmath.code.tex
INPUT /opt/homebrew/Cellar/texlive/20240312_1/share/texmf-dist/tex/generic/pgf/math/pgfmath.code.tex
INPUT /opt/homebrew/Cellar/texlive/20240312_1/share/texmf-dist/tex/generic/pgf/math/pgfmath.code.tex
INPUT /opt/homebrew/Cellar/texlive/20240312_1/share/texmf-dist/tex/generic/pgf/utilities/pgffor.code.tex
INPUT /opt/homebrew/Cellar/texlive/20240312_1/share/texmf-dist/tex/generic/pgf/utilities/pgffor.code.tex
INPUT /opt/homebrew/Cellar/texlive/20240312_1/share/texmf-dist/tex/generic/pgf/utilities/pgffor.code.tex
INPUT /opt/homebrew/Cellar/texlive/20240312_1/share/texmf-dist/tex/generic/pgf/frontendlayer/tikz/tikz.code.tex
INPUT /opt/homebrew/Cellar/texlive/20240312_1/share/texmf-dist/tex/generic/pgf/frontendlayer/tikz/tikz.code.tex
INPUT /opt/homebrew/Cellar/texlive/20240312_1/share/texmf-dist/tex/generic/pgf/frontendlayer/tikz/tikz.code.tex
INPUT /opt/homebrew/Cellar/texlive/20240312_1/share/texmf-dist/tex/generic/pgf/libraries/pgflibraryplothandlers.code.tex
INPUT /opt/homebrew/Cellar/texlive/20240312_1/share/texmf-dist/tex/generic/pgf/libraries/pgflibraryplothandlers.code.tex
INPUT /opt/homebrew/Cellar/texlive/20240312_1/share/texmf-dist/tex/generic/pgf/modules/pgfmodulematrix.code.tex
INPUT /opt/homebrew/Cellar/texlive/20240312_1/share/texmf-dist/tex/generic/pgf/frontendlayer/tikz/libraries/tikzlibrarytopaths.code.tex
INPUT /opt/homebrew/Cellar/texlive/20240312_1/share/texmf-dist/tex/generic/pgf/frontendlayer/tikz/libraries/tikzlibrarytopaths.code.tex
INPUT /opt/homebrew/Cellar/texlive/20240312_1/share/texmf-dist/tex/generic/pgf/frontendlayer/tikz/libraries/tikzlibraryshapes.code.tex
INPUT /opt/homebrew/Cellar/texlive/20240312_1/share/texmf-dist/tex/generic/pgf/frontendlayer/tikz/libraries/tikzlibraryshapes.code.tex
INPUT /opt/homebrew/Cellar/texlive/20240312_1/share/texmf-dist/tex/generic/pgf/frontendlayer/tikz/libraries/tikzlibraryshapes.geometric.code.tex
INPUT /opt/homebrew/Cellar/texlive/20240312_1/share/texmf-dist/tex/generic/pgf/frontendlayer/tikz/libraries/tikzlibraryshapes.geometric.code.tex
INPUT /opt/homebrew/Cellar/texlive/20240312_1/share/texmf-dist/tex/generic/pgf/libraries/shapes/pgflibraryshapes.geometric.code.tex
INPUT /opt/homebrew/Cellar/texlive/20240312_1/share/texmf-dist/tex/generic/pgf/libraries/shapes/pgflibraryshapes.geometric.code.tex
INPUT /opt/homebrew/Cellar/texlive/20240312_1/share/texmf-dist/tex/generic/pgf/frontendlayer/tikz/libraries/tikzlibraryshapes.misc.code.tex
INPUT /opt/homebrew/Cellar/texlive/20240312_1/share/texmf-dist/tex/generic/pgf/frontendlayer/tikz/libraries/tikzlibraryshapes.misc.code.tex
INPUT /opt/homebrew/Cellar/texlive/20240312_1/share/texmf-dist/tex/generic/pgf/libraries/shapes/pgflibraryshapes.misc.code.tex
INPUT /opt/homebrew/Cellar/texlive/20240312_1/share/texmf-dist/tex/generic/pgf/libraries/shapes/pgflibraryshapes.misc.code.tex
INPUT /opt/homebrew/Cellar/texlive/20240312_1/share/texmf-dist/tex/generic/pgf/frontendlayer/tikz/libraries/tikzlibraryshapes.symbols.code.tex
INPUT /opt/homebrew/Cellar/texlive/20240312_1/share/texmf-dist/tex/generic/pgf/frontendlayer/tikz/libraries/tikzlibraryshapes.symbols.code.tex
INPUT /opt/homebrew/Cellar/texlive/20240312_1/share/texmf-dist/tex/generic/pgf/libraries/shapes/pgflibraryshapes.symbols.code.tex
INPUT /opt/homebrew/Cellar/texlive/20240312_1/share/texmf-dist/tex/generic/pgf/libraries/shapes/pgflibraryshapes.symbols.code.tex
INPUT /opt/homebrew/Cellar/texlive/20240312_1/share/texmf-dist/tex/generic/pgf/frontendlayer/tikz/libraries/tikzlibraryshapes.arrows.code.tex
INPUT /opt/homebrew/Cellar/texlive/20240312_1/share/texmf-dist/tex/generic/pgf/frontendlayer/tikz/libraries/tikzlibraryshapes.arrows.code.tex
INPUT /opt/homebrew/Cellar/texlive/20240312_1/share/texmf-dist/tex/generic/pgf/libraries/shapes/pgflibraryshapes.arrows.code.tex
INPUT /opt/homebrew/Cellar/texlive/20240312_1/share/texmf-dist/tex/generic/pgf/libraries/shapes/pgflibraryshapes.arrows.code.tex
INPUT /opt/homebrew/Cellar/texlive/20240312_1/share/texmf-dist/tex/generic/pgf/frontendlayer/tikz/libraries/tikzlibraryshapes.callouts.code.tex
INPUT /opt/homebrew/Cellar/texlive/20240312_1/share/texmf-dist/tex/generic/pgf/frontendlayer/tikz/libraries/tikzlibraryshapes.callouts.code.tex
INPUT /opt/homebrew/Cellar/texlive/20240312_1/share/texmf-dist/tex/generic/pgf/libraries/shapes/pgflibraryshapes.callouts.code.tex
INPUT /opt/homebrew/Cellar/texlive/20240312_1/share/texmf-dist/tex/generic/pgf/libraries/shapes/pgflibraryshapes.callouts.code.tex
INPUT /opt/homebrew/Cellar/texlive/20240312_1/share/texmf-dist/tex/generic/pgf/frontendlayer/tikz/libraries/tikzlibraryshapes.multipart.code.tex
INPUT /opt/homebrew/Cellar/texlive/20240312_1/share/texmf-dist/tex/generic/pgf/frontendlayer/tikz/libraries/tikzlibraryshapes.multipart.code.tex
INPUT /opt/homebrew/Cellar/texlive/20240312_1/share/texmf-dist/tex/generic/pgf/libraries/shapes/pgflibraryshapes.multipart.code.tex
INPUT /opt/homebrew/Cellar/texlive/20240312_1/share/texmf-dist/tex/generic/pgf/libraries/shapes/pgflibraryshapes.multipart.code.tex
INPUT /opt/homebrew/Cellar/texlive/20240312_1/share/texmf-dist/tex/generic/pgf/frontendlayer/tikz/libraries/tikzlibrarybackgrounds.code.tex
INPUT /opt/homebrew/Cellar/texlive/20240312_1/share/texmf-dist/tex/generic/pgf/frontendlayer/tikz/libraries/tikzlibrarybackgrounds.code.tex
INPUT /opt/homebrew/Cellar/texlive/20240312_1/share/texmf-dist/tex/latex/tools/longtable.sty
INPUT /opt/homebrew/Cellar/texlive/20240312_1/share/texmf-dist/tex/latex/tools/longtable.sty
INPUT /opt/homebrew/Cellar/texlive/20240312_1/share/texmf-dist/tex/latex/raleway/T1Raleway-TLF.fd
INPUT /opt/homebrew/Cellar/texlive/20240312_1/share/texmf-dist/tex/latex/raleway/T1Raleway-TLF.fd
INPUT /opt/homebrew/Cellar/texlive/20240312_1/share/texmf-dist/tex/latex/raleway/T1Raleway-TLF.fd
INPUT /opt/homebrew/Cellar/texlive/20240312_1/share/texmf-dist/fonts/tfm/impallari/raleway/Raleway-Regular-tlf-t1.tfm
INPUT /opt/homebrew/Cellar/texlive/20240312_1/share/texmf-dist/tex/latex/l3backend/l3backend-pdftex.def
INPUT /opt/homebrew/Cellar/texlive/20240312_1/share/texmf-dist/tex/latex/l3backend/l3backend-pdftex.def
INPUT ./main.aux
INPUT ./main.aux
INPUT main.aux
OUTPUT main.aux
INPUT /opt/homebrew/Cellar/texlive/20240312_1/share/texmf-dist/tex/latex/ly1/ly1ptm.fd
INPUT /opt/homebrew/Cellar/texlive/20240312_1/share/texmf-dist/tex/latex/ly1/ly1ptm.fd
INPUT /opt/homebrew/Cellar/texlive/20240312_1/share/texmf-dist/tex/latex/ly1/ly1ptm.fd
INPUT ./main.out
INPUT ./main.out
INPUT main.out
INPUT main.out
INPUT ./main.out
INPUT ./main.out
OUTPUT main.out
OUTPUT main.pdf
INPUT /opt/homebrew/Cellar/texlive/20240312_1/share/texmf-dist/tex/context/base/mkii/supp-pdf.mkii
INPUT /opt/homebrew/Cellar/texlive/20240312_1/share/texmf-dist/tex/context/base/mkii/supp-pdf.mkii
INPUT /opt/homebrew/Cellar/texlive/20240312_1/share/texmf-dist/tex/context/base/mkii/supp-pdf.mkii
INPUT /opt/homebrew/Cellar/texlive/20240312_1/share/texmf-dist/tex/latex/epstopdf-pkg/epstopdf-base.sty
INPUT /opt/homebrew/Cellar/texlive/20240312_1/share/texmf-dist/tex/latex/epstopdf-pkg/epstopdf-base.sty
INPUT /opt/homebrew/Cellar/texlive/20240312_1/share/texmf-dist/tex/latex/latexconfig/epstopdf-sys.cfg
INPUT /opt/homebrew/Cellar/texlive/20240312_1/share/texmf-dist/tex/latex/latexconfig/epstopdf-sys.cfg
INPUT /opt/homebrew/Cellar/texlive/20240312_1/share/texmf-dist/tex/latex/latexconfig/epstopdf-sys.cfg
INPUT /opt/homebrew/Cellar/texlive/20240312_1/share/texmf-dist/fonts/tfm/impallari/raleway/Raleway-Regular-tlf-t1.tfm
INPUT /opt/homebrew/Cellar/texlive/20240312_1/share/texmf-dist/fonts/tfm/impallari/raleway/Raleway-Bold-tlf-t1.tfm
INPUT /opt/homebrew/Cellar/texlive/20240312_1/share/texmf-dist/fonts/tfm/impallari/raleway/Raleway-Regular-tlf-t1.tfm
INPUT /opt/homebrew/Cellar/texlive/20240312_1/share/texmf-dist/fonts/tfm/impallari/raleway/Raleway-Regular-tlf-t1.tfm
INPUT /opt/homebrew/Cellar/texlive/20240312_1/share/texmf-dist/tex/latex/fontawesome/ufontawesometwo.fd
INPUT /opt/homebrew/Cellar/texlive/20240312_1/share/texmf-dist/tex/latex/fontawesome/ufontawesometwo.fd
INPUT /opt/homebrew/Cellar/texlive/20240312_1/share/texmf-dist/tex/latex/fontawesome/ufontawesometwo.fd
INPUT /opt/homebrew/Cellar/texlive/20240312_1/share/texmf-dist/fonts/tfm/public/fontawesome/FontAwesome--fontawesometwo.tfm
INPUT /opt/homebrew/Cellar/texlive/20240312_1/share/texmf-dist/fonts/tfm/public/cm/cmr6.tfm
INPUT /opt/homebrew/Cellar/texlive/20240312_1/share/texmf-dist/fonts/tfm/public/cm/cmmi9.tfm
INPUT /opt/homebrew/Cellar/texlive/20240312_1/share/texmf-dist/fonts/tfm/public/cm/cmmi6.tfm
INPUT /opt/homebrew/Cellar/texlive/20240312_1/share/texmf-dist/fonts/tfm/public/cm/cmsy9.tfm
INPUT /opt/homebrew/Cellar/texlive/20240312_1/share/texmf-dist/fonts/tfm/public/cm/cmsy6.tfm
INPUT /opt/homebrew/Cellar/texlive/20240312_1/share/texmf-dist/fonts/tfm/public/amsfonts/cmextra/cmex9.tfm
INPUT /opt/homebrew/Cellar/texlive/20240312_1/share/texmf-dist/fonts/tfm/public/amsfonts/cmextra/cmex7.tfm
INPUT /opt/homebrew/Cellar/texlive/20240312_1/share/texmf-dist/tex/latex/fontawesome/ufontawesomeone.fd
INPUT /opt/homebrew/Cellar/texlive/20240312_1/share/texmf-dist/tex/latex/fontawesome/ufontawesomeone.fd
INPUT /opt/homebrew/Cellar/texlive/20240312_1/share/texmf-dist/tex/latex/fontawesome/ufontawesomeone.fd
INPUT /opt/homebrew/Cellar/texlive/20240312_1/share/texmf-dist/fonts/tfm/public/fontawesome/FontAwesome--fontawesomeone.tfm
INPUT /opt/homebrew/Cellar/texlive/20240312_1/share/texmf-dist/fonts/tfm/impallari/raleway/Raleway-Bold-tlf-t1.tfm
INPUT /opt/homebrew/Cellar/texlive/20240312_1/share/texmf-dist/fonts/tfm/impallari/raleway/Raleway-Regular-tlf-t1.tfm
INPUT /opt/homebrew/Cellar/texlive/20240312_1/share/texmf-dist/fonts/tfm/impallari/raleway/Raleway-Bold-tlf-t1.tfm
INPUT /opt/homebrew/Cellar/texlive/20240312_1/share/texmf-dist/tex/latex/base/t1cmtt.fd
INPUT /opt/homebrew/Cellar/texlive/20240312_1/share/texmf-dist/tex/latex/base/t1cmtt.fd
INPUT /opt/homebrew/Cellar/texlive/20240312_1/share/texmf-dist/tex/latex/base/t1cmtt.fd
INPUT /opt/homebrew/Cellar/texlive/20240312_1/share/texmf-dist/fonts/tfm/jknappen/ec/ectt0900.tfm
INPUT /opt/homebrew/Cellar/texlive/20240312_1/share/texmf-dist/fonts/tfm/impallari/raleway/Raleway-Italic-tlf-t1.tfm
INPUT /opt/homebrew/Cellar/texlive/20240312_1/share/texmf-dist/fonts/vf/impallari/raleway/Raleway-Bold-tlf-t1.vf
INPUT /opt/homebrew/Cellar/texlive/20240312_1/share/texmf-dist/fonts/tfm/impallari/raleway/Raleway-Bold-tlf-t1--base.tfm
INPUT /opt/homebrew/Cellar/texlive/20240312_1/share/texmf-dist/fonts/map/pdftex/updmap/pdftex.map
INPUT /opt/homebrew/Cellar/texlive/20240312_1/share/texmf-dist/fonts/enc/dvips/raleway/a_bzmckq.enc
INPUT /opt/homebrew/Cellar/texlive/20240312_1/share/texmf-dist/fonts/vf/impallari/raleway/Raleway-Regular-tlf-t1.vf
INPUT /opt/homebrew/Cellar/texlive/20240312_1/share/texmf-dist/fonts/tfm/impallari/raleway/Raleway-Regular-tlf-t1--base.tfm
INPUT /opt/homebrew/Cellar/texlive/20240312_1/share/texmf-dist/fonts/enc/dvips/fontawesome/fontawesometwo.enc
INPUT /opt/homebrew/Cellar/texlive/20240312_1/share/texmf-dist/fonts/vf/impallari/raleway/Raleway-Regular-tlf-t1.vf
INPUT /opt/homebrew/Cellar/texlive/20240312_1/share/texmf-dist/fonts/tfm/impallari/raleway/Raleway-Regular-tlf-t1--base.tfm
INPUT /opt/homebrew/Cellar/texlive/20240312_1/share/texmf-dist/fonts/enc/dvips/fontawesome/fontawesomeone.enc
INPUT /opt/homebrew/Cellar/texlive/20240312_1/share/texmf-dist/fonts/vf/impallari/raleway/Raleway-Bold-tlf-t1.vf
INPUT /opt/homebrew/Cellar/texlive/20240312_1/share/texmf-dist/fonts/tfm/impallari/raleway/Raleway-Bold-tlf-t1--base.tfm
INPUT /opt/homebrew/Cellar/texlive/20240312_1/share/texmf-dist/fonts/vf/impallari/raleway/Raleway-Regular-tlf-t1.vf
INPUT /opt/homebrew/Cellar/texlive/20240312_1/share/texmf-dist/fonts/tfm/impallari/raleway/Raleway-Regular-tlf-t1--base.tfm
INPUT /opt/homebrew/Cellar/texlive/20240312_1/share/texmf-dist/fonts/vf/impallari/raleway/Raleway-Bold-tlf-t1.vf
INPUT /opt/homebrew/Cellar/texlive/20240312_1/share/texmf-dist/fonts/tfm/impallari/raleway/Raleway-Bold-tlf-t1--base.tfm
INPUT /opt/homebrew/Cellar/texlive/20240312_1/share/texmf-dist/fonts/enc/dvips/cm-super/cm-super-t1.enc
INPUT /opt/homebrew/Cellar/texlive/20240312_1/share/texmf-dist/fonts/vf/impallari/raleway/Raleway-Italic-tlf-t1.vf
INPUT /opt/homebrew/Cellar/texlive/20240312_1/share/texmf-dist/fonts/tfm/impallari/raleway/Raleway-Italic-tlf-t1--base.tfm
INPUT main.aux
INPUT ./main.out
INPUT ./main.out
INPUT /opt/homebrew/Cellar/texlive/20240312_1/share/texmf-dist/fonts/type1/public/fontawesome/FontAwesome.pfb
INPUT /opt/homebrew/Cellar/texlive/20240312_1/share/texmf-dist/fonts/type1/impallari/raleway/Raleway-Bold.pfb
INPUT /opt/homebrew/Cellar/texlive/20240312_1/share/texmf-dist/fonts/type1/impallari/raleway/Raleway-Italic.pfb
INPUT /opt/homebrew/Cellar/texlive/20240312_1/share/texmf-dist/fonts/type1/impallari/raleway/Raleway-Regular.pfb
INPUT /opt/homebrew/Cellar/texlive/20240312_1/share/texmf-dist/fonts/type1/public/cm-super/sftt0900.pfb
